…
exp_df
```

    ## # A tibble: 160 x 5
    ##    filename group id    weeks observation
    ##    <fct>    <fct> <fct> <fct>       <dbl>
    ##  1 con_01   con   01    1            0.2 
    ##  2 con_02   con   02    1            1.13
    ##  3 con_03   con   03    1            1.77
    ##  4 con_04   con   04    1            1.04
    ##  5 con_05   con   05    1            0.47
    ##  6 con_06   con   06    1            2.37
    ##  7 con_07   con   07    1            0.03
    ##  8 con_08   con   08    1           -0.08
    ##  9 con_09   con   09    1            0.08
    ## 10 con_10   con   10    1            2.14
    ## # ... with 150 more rows
…
